[gd_scene load_steps=3 format=2]

[ext_resource path="res://snak.gd" type="Script" id=1]
[ext_resource path="res://tile.png" type="Texture" id=3]

[node name="Snak" type="Node2D"]
script = ExtResource( 1 )

[node name="TextureRect" type="TextureRect" parent="."]
show_behind_parent = true
margin_right = 10000.0
margin_bottom = 10000.0
grow_horizontal = 2
texture = ExtResource( 3 )
stretch_mode = 2
